<?xml version="1.0" encoding="utf-8"?>
<!-- Generator: Adobe Illustrator 16.0.0, SVG Export Plug-In . SVG Version: 6.00 Build 0)  -->
<!DOCTYPE svg PUBLIC "-//W3C//DTD SVG 1.1//EN" "http://www.w3.org/Graphics/SVG/1.1/DTD/svg11.dtd">
<svg version="1.1" id="Layer_1" xmlns="http://www.w3.org/2000/svg" xmlns:xlink="http://www.w3.org/1999/xlink" x="0px" y="0px"
	 width="400px" height="400px" viewBox="0 0 400 400" enable-background="new 0 0 400 400" xml:space="preserve">
<text transform="matrix(1 0 0 1 7.0703 321.4268)" display="none" font-family="'PillGothic600mg-Bold'" font-size="347.8863">ER</text>
<g display="none">
	<path display="inline" d="M152.004,87.719h39.416v160.724c0,52.53-38.145,79.317-85.507,79.317
		c-48.316,0-86.144-26.438-86.144-79.317V87.719h39.416v160.724c0,28.179,20.662,41.051,46.409,41.051
		c25.112,0,46.409-13.22,46.409-41.051V87.719z"/>
	<path display="inline" d="M265.479,161.123v89.755c0,26.787,18.437,38.615,42.912,38.615c21.298,0,40.37-6.263,54.674-20.178
		l17.166,31.657c-21.298,20.873-43.867,26.787-71.84,26.787c-46.727,0-82.328-25.743-82.328-76.882v-89.755
		c0-48.356,37.191-76.883,82.011-76.883c34.966,0,51.177,10.437,71.203,33.049l-21.615,29.223
		c-13.669-13.915-28.29-24.004-49.588-24.004C284.869,122.508,265.479,136.423,265.479,161.123z"/>
</g>
<g>
	<path d="M254.472,88.023h43.717V327.76h-43.717v-96.952h-98.363v96.952h-43.717V88.023h43.717v104.003h98.363V88.023z"/>
</g>
</svg>
