<?xml version="1.0" encoding="utf-8"?>
<!-- Generator: Adobe Illustrator 19.2.1, SVG Export Plug-In . SVG Version: 6.00 Build 0)  -->
<svg version="1.1" id="Layer_1" xmlns="http://www.w3.org/2000/svg" xmlns:xlink="http://www.w3.org/1999/xlink" x="0px" y="0px"
	 viewBox="0 0 400 400" enable-background="new 0 0 400 400" xml:space="preserve">
<polygon points="203.609,164.099 180.379,164.099 180.379,140.869 157.149,140.869 157.149,164.099 133.919,164.099 
	133.919,187.329 157.149,187.329 157.149,210.559 180.379,210.559 180.379,187.329 203.609,187.329 "/>
<rect x="217.882" y="168.321" width="80.618" height="15.35"/>
<rect x="217.882" y="140.869" width="80.618" height="15.35"/>
<rect x="217.882" y="195.209" width="53.366" height="15.35"/>
<path d="M283.866,327.91"/>
<path d="M318.866,96.072h-27.677V60.333h-61.366v-5.64h-28.327c0.001-0.085,0.013-0.167,0.013-0.253
	c0-9.945-8.064-18.009-18.009-18.009s-18.009,8.064-18.009,18.009c0,0.085,0.012,0.168,0.013,0.253h-28.327v5.22H77.634V333.41h36.5
	v29.158h204.732V98.072V96.072z M88.634,322.41V70.914h48.543v6.941H198c0,0,4.5-11.429,18.004-11.518
	c9.496-0.063,13.818,4.742,13.818,4.742v-0.746h50.366v25.739h-17.366v-5.72h-28.327c0.001-0.085,0.013-0.167,0.013-0.253
	c0-9.945-8.064-18.009-18.009-18.009s-18.009,8.064-18.009,18.009c0,0.085,0.012,0.168,0.013,0.253h-28.327v5.72h-56.043V322.41
	H88.634z M307.866,108.072v243.496H125.134V107.072h45.043v11.441h92.646v-11.441h45.043V108.072z"/>
<line x1="137.177" y1="78.085" x2="229.823" y2="78.085"/>
</svg>
